ssdtools User Manual
…
For more information on using R the reader is referred to R for Data Science (Wickham and Grolemund 2016).

If you discover a bug in ssdtools please file an issue with a reprex (repeatable example) at https://github.com/bcgov/ssdtools/issues.

Inputting Data

Once the ssdtools package has been loaded the next task is to input some data. An easy way to do this is to save the concentration data for a single chemical as a column called Conc in a comma separated file (.csv). Each row should be the sensitivity concentration for a separate species. If species and/or group information is available then this can be saved as Species and Group columns. The .csv file can then be read into R using

data <- read_csv(file = "path/to/file.csv")

For the purposes of this manual we use the CCME dataset for boron which is provided with the ssdtools package

data <- ssdtools::boron_data
print(data)
#> # A tibble: 28 x 5
#>    Chemical Species                  Conc Group        Units
#>    <chr>    <chr>                   <dbl> <fct>        <chr>
#>  1 Boron    Oncorhynchus mykiss       2.1 Fish         mg/L 
#>  2 Boron    Ictalurus punctatus       2.4 Fish         mg/L 
#>  3 Boron    Micropterus salmoides     4.1 Fish         mg/L 
#>  4 Boron    Brachydanio rerio        10   Fish         mg/L 
#>  5 Boron    Carassius auratus        15.6 Fish         mg/L 
#>  6 Boron    Pimephales promelas      18.3 Fish         mg/L 
#>  7 Boron    Daphnia magna             6   Invertebrate mg/L 
#>  8 Boron    Opercularia bimarginata  10   Invertebrate mg/L 
#>  9 Boron    Ceriodaphnia dubia       13.4 Invertebrate mg/L 
#> 10 Boron    Entosiphon sulcatum      15   Invertebrate mg/L 
#> # ... with 18 more rows
…
Averaging Multiple Distributions

Often other distributions will fit the data almost as well as the best distribution as evidenced by delta values < 2. In this situation the recommended approach is to estimate the average fit based on the relative weights of the distributions (Burnham and Anderson 2002). The aicc based weights are indicated by the weight column in the goodness of fit table. In the current example, the gamma, Weibull and log-normal distributions have delta values < 2.

Estimating the Fit

The predict function can be used to generate estimates model-averaged (or if average = FALSE individual) estimates. By default model averaging is based on aicc.

boron_pred <- predict(boron_dists)

The resultant object is a data frame of the estimated concentration (est) with standard error (se) and lower (lcl) and upper (ucl) 95% confidence limits by percent of species affected (percent). The uncertainty in the estimates is generated using parametric bootstrapping.

boron_pred
#> # A tibble: 99 x 5
#>    percent   est    se   lcl   ucl
#>  *   <int> <dbl> <dbl> <dbl> <dbl>
#>  1       1 0.304 0.332 0.124  1.04
#>  2       2 0.544 0.453 0.236  1.63
#>  3       3 0.780 0.553 0.352  2.16
#>  4       4 1.01  0.643 0.473  2.66
#>  5       5 1.25  0.726 0.595  3.15
#>  6       6 1.49  0.805 0.724  3.60
#>  7       7 1.73  0.881 0.858  4.03
#>  8       8 1.97  0.955 0.996  4.49
#>  9       9 2.21  1.03  1.14   4.92
#> 10      10 2.46  1.10  1.29   5.35
#> # ... with 89 more rows
…
