Get Started with ssdtools
…
For more information on using R the reader is referred to R for Data Science (Wickham and Grolemund 2016).

If you discover a bug in ssdtools please file an issue with a reprex (repeatable example) at https://github.com/bcgov/ssdtools/issues.

Inputting Data

Once the ssdtools package has been loaded the next task is to input some data. An easy way to do this is to save the concentration data for a single chemical as a column called Conc in a comma separated file (.csv). Each row should be the sensitivity concentration for a separate species. If species and/or group information is available then this can be saved as Species and Group columns. The .csv file can then be read into R using the following

data <- read_csv(file = "path/to/file.csv")

For the purposes of this manual we use the CCME dataset for boron which is provided with the ssdtools package.

boron_data <- ssdtools::boron_data
print(boron_data)
#> # A tibble: 28 x 5
#>    Chemical Species                  Conc Group        Units
#>    <chr>    <chr>                   <dbl> <fct>        <chr>
#>  1 Boron    Oncorhynchus mykiss       2.1 Fish         mg/L 
#>  2 Boron    Ictalurus punctatus       2.4 Fish         mg/L 
#>  3 Boron    Micropterus salmoides     4.1 Fish         mg/L 
#>  4 Boron    Brachydanio rerio        10   Fish         mg/L 
#>  5 Boron    Carassius auratus        15.6 Fish         mg/L 
#>  6 Boron    Pimephales promelas      18.3 Fish         mg/L 
#>  7 Boron    Daphnia magna             6   Invertebrate mg/L 
#>  8 Boron    Opercularia bimarginata  10   Invertebrate mg/L 
#>  9 Boron    Ceriodaphnia dubia       13.4 Invertebrate mg/L 
#> 10 Boron    Entosiphon sulcatum      15   Invertebrate mg/L 
#> # â€¦ with 18 more rows
…
Averaging Multiple Distributions

Often other distributions will fit the data almost as well as the best distribution as evidenced by delta values < 2 (Burnham and Anderson 2002). In this situation the recommended approach is to estimate the average fit based on the relative weights of the distributions (Burnham and Anderson 2002). The aicc based weights are indicated by the weight column in the goodness of fit table. In the current example, the gamma and log-normal distributions have delta values < 2.

Estimating the Fit

The predict function can be used to generate estimates model-averaged (or if average = FALSE individual) estimates. By default model averaging is based on aicc.

set.seed(99)
boron_pred <- predict(boron_dists, ci = TRUE)

The resultant object is a data frame of the estimated concentration (est) with standard error (se) and lower (lcl) and upper (ucl) 95% confidence limits by percent of species affected (percent). The confidence limits are estimated using parametric bootstrapping.

boron_pred
#> # A tibble: 99 x 6
#>    percent   est    se   lcl   ucl dist   
#>      <int> <dbl> <dbl> <dbl> <dbl> <chr>  
#>  1       1 0.379 0.361 0.125  1.46 average
#>  2       2 0.624 0.507 0.217  2.11 average
#>  3       3 0.856 0.621 0.317  2.65 average
#>  4       4 1.08  0.720 0.422  3.15 average
#>  5       5 1.31  0.808 0.527  3.57 average
#>  6       6 1.53  0.889 0.637  4.00 average
#>  7       7 1.75  0.964 0.748  4.42 average
#>  8       8 1.98  1.03  0.862  4.83 average
#>  9       9 2.21  1.10  0.990  5.23 average
#> 10      10 2.44  1.17  1.12   5.63 average
#> # â€¦ with 89 more rows
…
